Chapter 6 Reports with - Week Four | Data Science for Biologists - 5023Y
…
This is the narrative of your document, including the titles and headings. It is written in the “markdown” language, which is used across many different software.

Below are the core ways to write this text. See more extensive documentation available on R Markdown “cheatsheets” at the RStudio website1.

6.4.2.1 New lines

Uniquely in R Markdown, to initiate a new line, enter *two spaces** at the end of the previous line and then Enter/Return.

library(palmerpenguins)

Let’s check the first 6 rows of information contained in the data frame, using the head() function:

head(penguins)

# A tibble: 344 x 8
   species island    bill_length_mm bill_depth_mm flipper_length_mm body_mass_g sex     year
   <fct>   <fct>              <dbl>         <dbl>             <int>       <int> <fct>  <int>
 1 Adelie  Torgersen           39.1          18.7               181        3750 male    2007
 2 Adelie  Torgersen           39.5          17.4               186        3800 female  2007
 3 Adelie  Torgersen           40.3          18                 195        3250 female  2007
 4 Adelie  Torgersen           NA            NA                  NA          NA NA      2007
 5 Adelie  Torgersen           36.7          19.3               193        3450 female  2007
 6 Adelie  Torgersen           39.3          20.6               190        3650 male    2007
 7 Adelie  Torgersen           38.9          17.8               181        3625 female  2007
 8 Adelie  Torgersen           39.2          19.6               195        4675 male    2007
 9 Adelie  Torgersen           34.1          18.1               193        3475 NA      2007
10 Adelie  Torgersen           42            20.2               190        4250 NA      2007
# ... with 334 more rows
…
